module livekit/issue-49

go 1.17

require github.com/livekit/server-sdk-go v0.9.2-0.20220308112932-c873f30833c5

require (
	github.com/beorn7/perks v1.0.1 // indirect
	github.com/bep/debounce v1.2.0 // indirect
	github.com/cespare/xxhash/v2 v2.1.1 // indirect
	github.com/dgryski/go-rendezvous v0.0.0-20200823014737-9f7001d12a5f // indirect
	github.com/eapache/channels v1.1.0 // indirect
	github.com/eapache/queue v1.1.0 // indirect
	github.com/go-logr/logr v1.1.0 // indirect
	github.com/go-logr/stdr v1.0.0 // indirect
	github.com/go-redis/redis/v8 v8.11.3 // indirect
	github.com/golang/protobuf v1.5.2 // indirect
	github.com/google/uuid v1.3.0 // indirect
	github.com/gorilla/websocket v1.4.2 // indirect
	github.com/jxskiss/base62 v0.0.0-20191017122030-4f11678b909b // indirect
	github.com/lithammer/shortuuid/v3 v3.0.7 // indirect
	github.com/livekit/protocol v0.11.14-0.20220223195254-d8c251e13231 // indirect
	github.com/matttproud/golang_protobuf_extensions v1.0.1 // indirect
	github.com/pion/datachannel v1.5.2 // indirect
	github.com/pion/dtls/v2 v2.1.3 // indirect
	github.com/pion/ice/v2 v2.2.1 // indirect
	github.com/pion/interceptor v0.1.8 // indirect
	github.com/pion/logging v0.2.2 // indirect
	github.com/pion/mdns v0.0.5 // indirect
	github.com/pion/randutil v0.1.0 // indirect
	github.com/pion/rtcp v1.2.9 // indirect
	github.com/pion/rtp v1.7.4 // indirect
	github.com/pion/sctp v1.8.2 // indirect
	github.com/pion/sdp/v3 v3.0.4 // indirect
	github.com/pion/srtp/v2 v2.0.5 // indirect
	github.com/pion/stun v0.3.5 // indirect
	github.com/pion/transport v0.13.0 // indirect
	github.com/pion/turn/v2 v2.0.8 // indirect
	github.com/pion/udp v0.1.1 // indirect
	github.com/pion/webrtc/v3 v3.1.25-0.20220225075517-37e16a3b15a3 // indirect
	github.com/prometheus/client_golang v1.11.0 // indirect
	github.com/prometheus/client_model v0.2.0 // indirect
	github.com/prometheus/common v0.26.0 // indirect
	github.com/prometheus/procfs v0.6.0 // indirect
	github.com/thoas/go-funk v0.9.0 // indirect
	github.com/twitchtv/twirp v8.1.0+incompatible // indirect
	go.uber.org/atomic v1.9.0 // indirect
	golang.org/x/crypto v0.0.0-20220131195533-30dcbda58838 // indirect
	golang.org/x/net v0.0.0-20220127200216-cd36cc0744dd // indirect
	golang.org/x/sys v0.0.0-20211216021012-1d35b9e2eb4e // indirect
	golang.org/x/text v0.3.7 // indirect
	golang.org/x/xerrors v0.0.0-20200804184101-5ec99f83aff1 // indirect
	google.golang.org/genproto v0.0.0-20200526211855-cb27e3aa2013 // indirect
	google.golang.org/grpc v1.42.0 // indirect
	google.golang.org/protobuf v1.27.1 // indirect
	gopkg.in/square/go-jose.v2 v2.6.0 // indirect
	gopkg.in/yaml.v3 v3.0.0-20210107192922-496545a6307b // indirect
)
